[
    {
        "id": 1,
        "acte": "Titre Foncier",
        "code": "TF"
    },
    {
        "id": 2,
        "acte": "Permis d'Implanter",
        "code": "PI"
    },
    
    {
        "id": 3, 
        "acte": "Certificat d'Urbanisme",
        "code": "CU"
    },
    {
        "id": 4, 
        "acte": "Permis de Construire",
        "code": "PC"
    },
    {
        "id": 5, 
        "acte": "Certificat de conformité",
        "code": "CC"
    },
    {
        "id": 6, 
        "acte": "Permis de démolir",
        "code": "PD"
    }
]